{
    "app_categories": {
        "Connectivity": "การสื่อสาร",
        "Development": "การพัฒนาซอฟต์แวร์",
        "Games": "เกม",
        "Graphics": "กราฟิก",
        "Internet": "อินเตอร์เน็ต",
        "Money": "การเงิน",
        "Multimedia": "สื่อผสม",
        "Navigation": "การนำทาง",
        "Phone & SMS": "โทรศัพท์และ SMS",
        "Reading": "การอ่าน",
        "Science & Education": "วิทยาศาสตร์และการศึกษา",
        "Security": "ความมั่นคง",
        "Sports & Health": "กีฬาและสุขภาพ",
        "System": "เครื่องมือระบบ",
        "Theming": "ธีมต่างๆ",
        "Time": "เวลาและวันที่",
        "Writing": "การเขียน"
    }
}
